-------------------------------------------------------------------------------
Test set: com.newcomerproject.mockbin.MockbinApplicationTests
-------------------------------------------------------------------------------
Tests run: 1, Failures: 0, Errors: 0, Skipped: 0, Time elapsed: 3.2 s - in com.newcomerproject.mockbin.MockbinApplicationTests
